l3n4d7;(G{3}[AGCT]{1,7}){4};G3;none
l3n4d11;(G{3}[AGCT]{8,11}){4};G3;none
l3n4d15;(G{3}[AGCT]{12,15}){4};G3;none
l4n4d7;(G{4,}[AGCT]{1,7}){4};G4;none
l4n4d11;(G{4,}[AGCT]{8,11}){4};G4;none
l4n4d15;(G{4,}[AGCT]{12,15}){4};G4;none
